…
The workflow using the piped workflow outputs the same result as the
earlier workflow but with a much streamlined use of code.

Once all query parameters have been set to what is required, the actual
data from the remote table can be retrieved into
[R](https://www.r-project.org) by using the `collect` function:

``` r
dplyr::collect(gbr_epi_tab)
#> # A tibble: 177,735 x 15
#>    source date       country countrycode adm_area_1 adm_area_2 adm_area_3 tested
#>    <chr>  <date>     <chr>   <chr>       <chr>      <chr>      <chr>       <int>
#>  1 GBR_P… 2020-05-23 United… GBR         England    Hampshire  <NA>           NA
#>  2 GBR_P… 2020-05-23 United… GBR         England    Kent       <NA>           NA
#>  3 GBR_P… 2020-05-23 United… GBR         England    Essex      <NA>           NA
#>  4 GBR_P… 2020-05-23 United… GBR         England    Hertfords… <NA>           NA
#>  5 GBR_P… 2020-05-23 United… GBR         England    Leicester… <NA>           NA
#>  6 GBR_P… 2020-05-23 United… GBR         England    Norfolk    <NA>           NA
#>  7 GBR_P… 2020-05-23 United… GBR         England    Glouceste… <NA>           NA
#>  8 GBR_P… 2020-05-23 United… GBR         England    Cambridge… <NA>           NA
#>  9 GBR_P… 2020-05-23 United… GBR         England    Derbyshire <NA>           NA
#> 10 GBR_P… 2020-05-23 United… GBR         England    Westminst… <NA>           NA
#> # … with 177,725 more rows, and 7 more variables: confirmed <int>,
#> #   recovered <int>, dead <int>, hospitalised <int>, hospitalised_icu <int>,
#> #   quarantined <int>, gid <pq__text>
```
…
``` r
data_sources[["epidemiology"]]
```

which gives the following result:

    #> # A tibble: 63 x 5
    #>    Country   `Source code` Source        Features           `Terms of Use`      
    #>    <chr>     <chr>         <chr>         <chr>              <chr>               
    #>  1 Australia AUS_C1A       covid-19-au.… "tested, confirme… "Strictly for educa…
    #>  2 Belgium   BEL_LE        Laurent Esch… "confirmed (count… "CC0 1.0 Universal …
    #>  3 Belgium   BEL_SCI       Epistat       ""                 ""                  
    #>  4 Brazil    BRA_MSHM      Ministerio d… "confirmed (count… "CC0 1.0 Universal" 
    #>  5 Canada    CAN_GOV       Government o… "tested, confirme… "Attribution requir…
    #>  6 Switzerl… CHE_OPGOV     Swiss Canton… ""                 "CC 4.0"            
    #>  7 Mainland… CHN_ICL       MRC Centre f… "confirmed (both … "CC BY NC ND 4.0"   
    #>  8 Germany   DEU_JPGG      Jan-Philip G… "confirmed, dead"  "MIT"               
    #>  9 Spain     ESP_MS        Ministerio d… "confirmed, dead,… "\"Desnaturalizacio…
    #> 10 Spain     ESP_MSVP      Ministerio d… "confirmed, recov… "Apache License 2.0"
    #> # … with 53 more rows
…
