An R API to the Oxford COVID-19 Database • oxcovid19
…
The workflow using the piped workflow outputs the same result as the earlier workflow but with a much streamlined use of code.

Once all query parameters have been set to what is required, the actual data from the remote table can be retrieved into R by using the collect function:

dplyr::collect(gbr_epi_tab)
#> # A tibble: 197,508 x 15
#>    source date       country countrycode adm_area_1 adm_area_2 adm_area_3 tested
#>    <chr>  <date>     <chr>   <chr>       <chr>      <chr>      <chr>       <int>
#>  1 GBR_P… 2020-04-30 United… GBR         <NA>       <NA>       <NA>       933455
#>  2 GBR_P… 2020-04-29 United… GBR         <NA>       <NA>       <NA>       849296
#>  3 GBR_P… 2020-03-25 United… GBR         <NA>       <NA>       <NA>           NA
#>  4 GBR_P… 2020-07-28 United… GBR         England    Cambridge… <NA>           NA
#>  5 GBR_P… 2020-07-28 United… GBR         England    Cumbria    <NA>           NA
#>  6 GBR_P… 2020-07-28 United… GBR         England    Derbyshire <NA>           NA
#>  7 GBR_P… 2020-07-28 United… GBR         England    Devon      <NA>           NA
#>  8 GBR_P… 2020-07-28 United… GBR         England    East Suss… <NA>           NA
#>  9 GBR_P… 2020-07-28 United… GBR         England    Essex      <NA>           NA
#> 10 GBR_P… 2020-07-28 United… GBR         England    Glouceste… <NA>           NA
#> # … with 197,498 more rows, and 7 more variables: confirmed <int>,
#> #   recovered <int>, dead <int>, hospitalised <int>, hospitalised_icu <int>,
#> #   quarantined <int>, gid <pq__text>
…
The oxcovid19 package is in active development which will be dictated by the evolution of the OxCOVID19 Database over time. Whilst every attempt will be employed to maintain syntax of current functions, it is possible that current functions may change syntax or operability in order to ensure relevance or maybe deprecated in lieu of a more appropriate and/or more performant function. In either of these cases, any change will be well-documented and explained to users and deprecation will be staged in such a way that users will be informed in good time to allow for transition to using the new functions.

Citations

If you find OxCOVID19 Database useful please cite:

Adam Mahdi, Piotr Błaszczyk, Paweł Dłotko, Dario Salvi, Tak-Shing Chan, John Harvey, Davide Gurnari, Yue Wu, Ahmad Farhat, Niklas Hellmer, Alexander Zarebski, Bernie Hogan, Lionel Tarassenko, Oxford COVID-19 Database: a multimodal data repository for better understanding the global impact of COVID-19. University of Oxford, 2020. medRxiv (doi: https://doi.org/10.1101/2020.08.18.20177147).

The OxCOVID19 Database is the result of many hours of volunteer efforts and generous contributions of many organisations. If you use a specific table please also cite the underlying source as described here. Sources of specific tables can also be accessed via the oxcovid19 package through the data_sources dataset. For example, if you have accessed the Epidemiology table from the database, you can access the sources for this table with:

data_sources[["epidemiology"]]

which gives the following result:

#> # A tibble: 63 x 5
#>    Country   `Source code` Source        Features           `Terms of Use`      
#>    <chr>     <chr>         <chr>         <chr>              <chr>               
#>  1 Australia AUS_C1A       covid-19-au.… "tested, confirme… "Strictly for educa…
#>  2 Belgium   BEL_LE        Laurent Esch… "confirmed (count… "CC0 1.0 Universal …
#>  3 Belgium   BEL_SCI       Epistat       ""                 ""                  
#>  4 Brazil    BRA_MSHM      Ministerio d… "confirmed (count… "CC0 1.0 Universal" 
#>  5 Canada    CAN_GOV       Government o… "tested, confirme… "Attribution requir…
#>  6 Switzerl… CHE_OPGOV     Swiss Canton… ""                 "CC 4.0"            
#>  7 Mainland… CHN_ICL       MRC Centre f… "confirmed (both … "CC BY NC ND 4.0"   
#>  8 Germany   DEU_JPGG      Jan-Philip G… "confirmed, dead"  "MIT"               
#>  9 Spain     ESP_MS        Ministerio d… "confirmed, dead,… "\"Desnaturalizacio…
#> 10 Spain     ESP_MSVP      Ministerio d… "confirmed, recov… "Apache License 2.0"
#> # … with 53 more rows
…
