Country level visualisation for Mainland China • oxcovid19
…
Extracting only recent data - total per region

chn_recent_region <- connect_oxcovid19() %>%
  get_table(tbl_name = "epidemiology") %>%
  filter(source == "CHN_ICL",
         !is.na(adm_area_1)) %>%
  group_by(adm_area_1) %>%
  filter(as.Date(date) == max(as.Date(date))) %>%
  select(date, country, adm_area_1, confirmed, recovered, dead, gid) %>%
  collect()

#> # A tibble: 31 x 7
#> # Groups:   adm_area_1 [31]
#>    adm_area_1 date       country confirmed recovered  dead gid       
#>    <chr>      <date>     <chr>       <int>     <int> <int> <pq__text>
#>  1 Anhui      2020-03-31 China         990       984     6 {CHN.1_1} 
#>  2 Beijing    2020-04-01 China         580       418     8 {CHN.2_1} 
#>  3 Chongqing  2020-03-31 China         579       570     6 {CHN.3_1} 
#>  4 Fujian     2020-03-30 China         343       295     1 {CHN.4_1} 
#>  5 Gansu      2020-03-31 China         137       127     2 {CHN.5_1} 
#>  6 Guangdong  2020-03-31 China        1501      1357     8 {CHN.6_1} 
#>  7 Guangxi    2020-03-31 China         255       250     2 {CHN.7_1} 
#>  8 Guizhou    2020-03-31 China         147       144     2 {CHN.8_1} 
#>  9 Hainan     2020-03-30 China         168       162     6 {CHN.9_1} 
#> 10 Hebei      2020-03-30 China         321       310     6 {CHN.10_1}
#> # … with 21 more rows

Retrieving administrative division level 1 for single country

chn_admin_1 <- connect_oxcovid19() %>%
  get_table(tbl_name = "administrative_division") %>%
  filter(countrycode == "CHN",
         adm_level == 1) %>%
  collect()

#> # A tibble: 31 x 15
#>    country countrycode countrycode_alp… adm_level adm_area_1 adm_area_1_code
#>    <chr>   <chr>       <chr>                <int> <chr>      <chr>          
#>  1 China   CHN         CN                       1 Anhui      CHN.1_1        
#>  2 China   CHN         CN                       1 Beijing    CHN.2_1        
#>  3 China   CHN         CN                       1 Chongqing  CHN.3_1        
#>  4 China   CHN         CN                       1 Fujian     CHN.4_1        
#>  5 China   CHN         CN                       1 Gansu      CHN.5_1        
#>  6 China   CHN         CN                       1 Guangdong  CHN.6_1        
#>  7 China   CHN         CN                       1 Guangxi    CHN.7_1        
#>  8 China   CHN         CN                       1 Guizhou    CHN.8_1        
#>  9 China   CHN         CN                       1 Hainan     CHN.9_1        
#> 10 China   CHN         CN                       1 Hebei      CHN.10_1       
#> # … with 21 more rows, and 9 more variables: adm_area_2 <chr>,
#> #   adm_area_2_code <chr>, adm_area_3 <chr>, adm_area_3_code <chr>, gid <chr>,
#> #   latitude <dbl>, longitude <dbl>, properties <pq_jsonb>, geometry <pq_gmtry>

Merge administrative division and epidemiology data

chn_recent_region <- chn_recent_region %>%
  mutate(gid = as.character(stringr::str_remove_all(string = gid,
                                                    pattern = "\\{|\\}"))) %>%
  left_join(y = chn_admin_1, by = "gid")

#> # A tibble: 31 x 21
#>    adm_area_1.x date       country.x confirmed recovered  dead gid   country.y
#>    <chr>        <date>     <chr>         <int>     <int> <int> <chr> <chr>    
#>  1 Anhui        2020-03-31 China           990       984     6 CHN.… China    
#>  2 Beijing      2020-04-01 China           580       418     8 CHN.… China    
#>  3 Chongqing    2020-03-31 China           579       570     6 CHN.… China    
#>  4 Fujian       2020-03-30 China           343       295     1 CHN.… China    
#>  5 Gansu        2020-03-31 China           137       127     2 CHN.… China    
#>  6 Guangdong    2020-03-31 China          1501      1357     8 CHN.… China    
#>  7 Guangxi      2020-03-31 China           255       250     2 CHN.… China    
#>  8 Guizhou      2020-03-31 China           147       144     2 CHN.… China    
#>  9 Hainan       2020-03-30 China           168       162     6 CHN.… China    
#> 10 Hebei        2020-03-30 China           321       310     6 CHN.… China    
#> # … with 21 more rows, and 13 more variables: countrycode <chr>,
#> #   countrycode_alpha2 <chr>, adm_level <int>, adm_area_1.y <chr>,
#> #   adm_area_1_code <chr>, adm_area_2 <chr>, adm_area_2_code <chr>,
#> #   adm_area_3 <chr>, adm_area_3_code <chr>, latitude <dbl>, longitude <dbl>,
#> #   properties <pq_jsonb>, geometry <pq_gmtry>
…
