Data sources for OxCOVID19 Database — data_sources • oxcovid19
…
  mobilityTibble of sources for mobility table

  weatherTibble of sources for weather table

    Source

    https://covid19.eng.ox.ac.uk/data_sources.html

    Examples

data_sources
#> $epidemiology
#> # A tibble: 45 x 5
#>    Country  `Source code` Source          Features           `Terms of Use`     
#>    <chr>    <chr>         <chr>           <chr>              <chr>              
#>  1 World    WRD_ECDC      European Centr… confirmed, dead, … ECDC Copyright     
#>  2 Argenti… LAT_DSRP      covid-19_latin… confirmed, dead, … CC BY-NC-SA 4.0    
#>  3 Austral… AUS_C1A       covid-19-au     tested, confirmed… For educational an…
#>  4 Austria  EU_ZH         COVID19 EU      tested, confirmed… MIT                
#>  5 Belgium  BEL_LE        covid19-be      tested, confirmed… CC0 1.0 Universal  
#>  6 Brazil   BRA_MSHM      covid19-Brazil… confirmed (countr… Public Domain      
#>  7 Brazil   LAT_DSRP      covid-19_latin… confirmed,  dead,… CC BY-NC-SA 4.0    
#>  8 Canada   CAN_GOV       Public Health … tested, confirmed… Attribution requir…
#>  9 Chile    LAT_DSRP      covid-19_latin… confirmed,  dead,… CC BY-NC-SA 4.0    
#> 10 China    CHN_ICL       Imperial Colle… confirmed,  dead,… with permission    
#> # … with 35 more rows
…
