Data structures for OxCOVID19 Database — data_structures • oxcovid19
…
#>  4 COUNTRY       VARCHAR     English name for the country                       
#>  5 COUNTRYCODE   VARCHAR(3)  ISO 3166-1 alpha-3 country codes                   
#>  6 ADM_AREA_1    VARCHAR     First-level administrative country subdivision     
#>  7 ADM_AREA_2    VARCHAR     Second-level administrative country subdivision    
#>  8 ADM_AREA_3    VARCHAR     Third-level administrative country subdivision     
#>  9 TESTED        INT         Number of people tested [cumulative]               
#> 10 CONFIRMED     INT         Number of confirmed cases [cumulative]             
#> 11 DEAD          INT         Number of deaths [cumulative]                      
#> 12 RECOVERED     INT         Number of confirmed who recovered [cumulative]     
#> 13 HOSPITALISED  INT         Number of confirmed who are/have been hospitalised…
#> 14 HOSPITALISED… INT         Number of confirmed who are/have been in the inten…
#> 15 QUARANTINED   INT         Number of confirmed with home quarantine [cumulati…
#> 
#> $government_response
#> # A tibble: 47 x 3
#>    Name              `Data type` Description                                    
#>    <chr>             <chr>       <chr>                                          
#>  1 SOURCE            VARCHAR     Data source                                    
#>  2 DATE              DATE        Day of the statistics                          
#>  3 GID               ARRAY       Unique geographical ID, for more details see  …
#>  4 COUNTRY           VARCHAR     English name for the country                   
#>  5 COUNTRYCODE       VARCHAR(3)  ISO 3166-1 alpha-3 country codes               
#>  6 ADM_AREA_1        VARCHAR     First-level administrative country subdivision 
#>  7 ADM_AREA_2        VARCHAR     Second-level administrative country subdivision
#>  8 ADM_AREA_3        VARCHAR     Third-level administrative country subdivision 
#>  9 ADM_AREA_3        VARCHAR     Third-level administrative country subdivision 
#> 10 C1_SCHOOL_CLOSING INT         Record closings of schools and universities    
#> # … with 37 more rows
…
#>  6 ADM_AREA_1    VARCHAR     First-level administrative country subdivision     
#>  7 ADM_AREA_2    VARCHAR     Second-level administrative country subdivision    
#>  8 ADM_AREA_3    VARCHAR     Third-level administrative country subdivision     
#>  9 TRANSIT_STAT… FLOAT       Mobility trends reported by Google for places like…
#> 10 RESIDENTIAL   FLOAT       Mobility trends reported by Google for places of r…
#> 11 WORKPLACE     FLOAT       Mobility trends reported by Google for places of w…
#> 12 PARKS         FLOAT       Mobility trends reported by Google for places like…
#> 13 RETAIL_RECRE… FLOAT       Mobility trends reported Google for places like re…
#> 14 GROCERY_FARM… FLOAT       Mobility trends reported by Google for places like…
#> 15 TRANSIT       FLOAT       The change in volume reported by Apple of people t…
#> 16 WALKING       FLOAT       The change in volume reported by Apple of people w…
#> 17 DRIVING       FLOAT       The change in volume reported by Apple of people d…
#> 
#> $weather
#> # A tibble: 36 x 3
#>    Name                 `Data type` Description                                 
#>    <chr>                <chr>       <chr>                                       
#>  1 DATE                 DATE        Day of the statistics                       
#>  2 GID                  VARCHAR     Unique geographical ID, for more details se…
#>  3 COUNTRY              VARCHAR     English name for the country                
#>  4 COUNTRYCODE          VARCHAR(3)  ISO 3166-1 alpha-3 country codes            
#>  5 PRECIP_MAX_AVG       FLOAT       Average of the daily maximum precipitation  
#>  6 PRECIP_MAX_STD       FLOAT       Standard deviation of the daily maximum pre…
#>  7 PRECIP_MEAN_AVG      FLOAT       Average of the daily mean precipitation     
#>  8 PRECIP_MEAN_STD      FLOAT       Standard deviation of the daily mean precip…
#>  9 SPECIFIC_HUMIDITY_M… FLOAT       Average of the daily maximum specific humid…
#> 10 SPECIFIC_HUMIDITY_M… FLOAT       Standard deviation of the daily maximum spe…
#> # … with 26 more rows
…
