Get government response data based on specified query parameters — get_data_response • oxcovid19
…
    Examples

## Get government response data for the the whole of the UK for all
## available dates
get_data_response(ccode = "GBR",
                  adm = 0)
#> # A tibble: 234 x 46
#>    source date       gid   country countrycode adm_area_1 adm_area_2 adm_area_3
#>    <chr>  <date>     <chr> <chr>   <chr>       <chr>      <chr>      <chr>     
#>  1 GOVTR… 2020-01-01 GBR   United… GBR         NA         NA         NA        
#>  2 GOVTR… 2020-01-02 GBR   United… GBR         NA         NA         NA        
#>  3 GOVTR… 2020-01-03 GBR   United… GBR         NA         NA         NA        
#>  4 GOVTR… 2020-01-04 GBR   United… GBR         NA         NA         NA        
#>  5 GOVTR… 2020-01-05 GBR   United… GBR         NA         NA         NA        
#>  6 GOVTR… 2020-01-06 GBR   United… GBR         NA         NA         NA        
#>  7 GOVTR… 2020-01-07 GBR   United… GBR         NA         NA         NA        
#>  8 GOVTR… 2020-01-08 GBR   United… GBR         NA         NA         NA        
#>  9 GOVTR… 2020-01-09 GBR   United… GBR         NA         NA         NA        
#> 10 GOVTR… 2020-01-10 GBR   United… GBR         NA         NA         NA        
#> # … with 224 more rows, and 38 more variables: c1_school_closing <int>,
#> #   c1_flag <int>, c2_workplace_closing <int>, c2_flag <int>,
#> #   c3_cancel_public_events <int>, c3_flag <int>,
#> #   c4_restrictions_on_gatherings <int>, c4_flag <int>,
#> #   c5_close_public_transport <int>, c5_flag <int>,
#> #   c6_stay_at_home_requirements <int>, c6_flag <int>,
#> #   c7_restrictions_on_internal_movement <int>, c7_flag <int>,
#> #   c8_international_travel_controls <int>, e1_income_support <int>,
#> #   e1_flag <int>, e2_debtcontract_relief <int>, e3_fiscal_measures <dbl>,
…
